34600 Problem Set 1
…
Answer 
 I confirmed that 100 clusters are in 50 pairs, each of which has a treatment and a control cluster. I also found that 
 - the modal level of schooling is “elementary education”; 
 - the modal marital status is “married”; 
 - 44.99% of the total sample households, or 45.15% of the total sample households without NAs, participated in Oportunidades; and 
 - mean non-health expenditure is 10044.92 pesos in 2005, equivalent to $837.077, and 9802.025 pesos in 2006, equivalent to $816.8354.

# Data rearranging
(data_rearranged <- 
  data %>%
  select(clust_pair, cluster, everything()) %>%
  group_by(clust_pair, cluster))

## # A tibble: 32,515 x 32
## # Groups:   clust_pair, cluster [100]
##    clust_pair cluster id_hogar   sex   age marstat hhsize food_yr_05
##         <dbl>   <dbl> <chr>    <dbl> <dbl> <dbl+l>  <dbl>      <dbl>
##  1         47       1 GRO0602~     1    22 2            4       6300
##  2         47       4 GRO0501~     1    56 3            1       5580
##  3         48       3 GRO0700~     2    52 1            3       1500
##  4         47       4 GRO0500~     1    21 1            6       4500
##  5         47       4 GRO0503~     1    33 6            3       3600
##  6         47       4 GRO0502~     2    32 2            5       6300
##  7         47       4 GRO0500~     1    34 2            5       3600
##  8         47       1 GRO0600~     1    29 3            3       2700
##  9         47       4 GRO0501~     2    20 1            9       5400
## 10         47       4 GRO0500~     2    30 2            3       4500
## # ... with 32,505 more rows, and 24 more variables: allbut_05 <dbl>,
## #   oop_yr3_05 <dbl>, food_yr_06 <dbl>, allbut_06 <dbl>, oop_yr3_06 <dbl>,
## #   treatment <dbl>, nkid_05 <dbl>, nadult_05 <dbl>, headwomen_05 <dbl>,
## #   edu_info_051 <dbl>, edu_info_052 <dbl>, edu_info_053 <dbl>,
## #   edu_info_054 <dbl>, edu_info_055 <dbl>, edu_info_056 <dbl>,
## #   insp2005 <dbl>, insp2006 <dbl>, opor_05 <dbl>, marstat1 <dbl>,
## #   marstat2 <dbl>, marstat3 <dbl>, marstat4 <dbl>, marstat5 <dbl>,
## #   marstat6 <dbl>

# Check clusters
(cluster_pair <- 
  data_rearranged %>%
  summarise(n_cluster = n_distinct(clust_pair)) %>%
  arrange(clust_pair))

## # A tibble: 100 x 3
## # Groups:   clust_pair [50]
##    clust_pair cluster n_cluster
##         <dbl>   <dbl>     <int>
##  1          1       5         1
##  2          1       6         1
##  3          2      18         1
##  4          2      60         1
##  5          3      13         1
##  6          3      50         1
##  7          4      22         1
##  8          4      52         1
##  9          5      49         1
## 10          5      64         1
## # ... with 90 more rows
…
    ext_hlth_bdg05 = as.numeric((hlth_bdgt_shr05 > 0.2)),
    adj_ext_hlth_bdg05 = as.numeric((adj_hlth_bdgt_shr05 > 0.3)),
    ext_hlth_bdg06 = as.numeric((hlth_bdgt_shr06 > 0.2)),
    adj_ext_hlth_bdg06 = as.numeric((adj_hlth_bdgt_shr06 > 0.3))
  ) %>%
  select(
    ext_hlth_bdg05,
    ext_hlth_bdg06,
    adj_ext_hlth_bdg05,
    adj_ext_hlth_bdg06, 
    everything()
  )
)

## # A tibble: 32,515 x 40
##    ext_hlth_bdg05 ext_hlth_bdg06 adj_ext_hlth_bd~ adj_ext_hlth_bd~ id_hogar
##             <dbl>          <dbl>            <dbl>            <dbl> <chr>   
##  1              0              0                0                0 GRO0602~
##  2              0             NA                0               NA GRO0501~
##  3              0              0                0                0 GRO0700~
##  4              0              0                0                0 GRO0500~
##  5              0              0                0                0 GRO0503~
##  6              0             NA                0               NA GRO0502~
##  7              0              0                0                0 GRO0500~
##  8              0              0                0                0 GRO0600~
##  9             NA              0               NA                0 GRO0501~
## 10              0              0                0                0 GRO0500~
## # ... with 32,505 more rows, and 35 more variables: sex <dbl>, age <dbl>,
## #   marstat <dbl+lbl>, hhsize <dbl>, food_yr_05 <dbl>, allbut_05 <dbl>,
## #   oop_yr3_05 <dbl>, food_yr_06 <dbl>, allbut_06 <dbl>, oop_yr3_06 <dbl>,
## #   treatment <dbl>, clust_pair <dbl>, nkid_05 <dbl>, nadult_05 <dbl>,
## #   headwomen_05 <dbl>, edu_info_051 <dbl>, edu_info_052 <dbl>,
## #   edu_info_053 <dbl>, edu_info_054 <dbl>, edu_info_055 <dbl>,
## #   edu_info_056 <dbl>, insp2005 <dbl>, insp2006 <dbl>, opor_05 <dbl>,
## #   cluster <dbl>, marstat1 <dbl>, marstat2 <dbl>, marstat3 <dbl>,
## #   marstat4 <dbl>, marstat5 <dbl>, marstat6 <dbl>, hlth_bdgt_shr05 <dbl>,
…
