30531 Problem Set 2
…
Answer: No single variable is the unique identifier for each “flight” represented by each row, although the unique “airline” can be represented by OP_CARRIER_AIRLINE_ID. Maybe the combination of the identifier variables would represent the unique flight. (MONTH, FL_DATE, OP_CARRIER_AIRLINE_ID, TAIL_NUM, OP_CARRIER_FL_NUM, ORIGIN_AIRPORT_ID)

R has six description methods: print, head, str, glimpse, View, summary. Apply them to chi_flights

Are any of the methods redundant, in the sense that you don’t learn anything about the data from these commands that you didn’t already know from the prior methods? Make a list of the non-redundant methods (giving preference to the command with prettier output).

# CODE GOES HERE
print(chi.flights)

## # A tibble: 675,822 x 27
##     YEAR MONTH FL_DATE    OP_UNIQUE_CARRI~ OP_CARRIER_AIRL~ OP_CARRIER
##    <int> <int> <date>     <chr>                       <int> <chr>     
##  1  2016     2 2016-02-01 AA                          19805 AA        
##  2  2016     2 2016-02-02 AA                          19805 AA        
##  3  2016     2 2016-02-03 AA                          19805 AA        
##  4  2016     2 2016-02-04 AA                          19805 AA        
##  5  2016     2 2016-02-05 AA                          19805 AA        
##  6  2016     2 2016-02-06 AA                          19805 AA        
##  7  2016     2 2016-02-07 AA                          19805 AA        
##  8  2016     2 2016-02-08 AA                          19805 AA        
##  9  2016     2 2016-02-09 AA                          19805 AA        
## 10  2016     2 2016-02-10 AA                          19805 AA        
## # ... with 675,812 more rows, and 21 more variables: TAIL_NUM <chr>,
## #   OP_CARRIER_FL_NUM <int>, ORIGIN_AIRPORT_ID <int>,
## #   ORIGIN_AIRPORT_SEQ_ID <int>, ORIGIN_CITY_MARKET_ID <int>,
## #   ORIGIN <chr>, ORIGIN_CITY_NAME <chr>, ORIGIN_STATE_NM <chr>,
## #   DEST_AIRPORT_ID <int>, DEST_AIRPORT_SEQ_ID <int>,
## #   DEST_CITY_MARKET_ID <int>, DEST <chr>, DEST_CITY_NAME <chr>,
## #   DEST_STATE_NM <chr>, DEP_TIME <chr>, DEP_DELAY <dbl>, ARR_TIME <chr>,
## #   ARR_DELAY <dbl>, AIR_TIME <dbl>, DISTANCE <dbl>, X27 <chr>
…
