Problem Set 4
…
## [1] 10867

length(unique(provider_hhrg$`Provider ID`))

## [1] 8392

# Missing providers
provider_hhrg_id_list <- unique(provider_hhrg$`Provider ID`)

provider %>%
  filter(!(`Provider ID` %in% provider_hhrg_id_list))

## # A tibble: 2,475 x 49
##    `Provider ID` `Agency Name` `Street Address` City  State `Zip Code`
##            <dbl> <chr>         <chr>            <chr> <chr> <chr>     
##  1         17008 JEFFERSON CO~ 2201 ARLINGTON ~ BESS~ AL    35020     
##  2         17139 ASSOCIATES H~ 102 WEST CONECU~ UNIO~ AL    36089     
##  3         17167 GENTIVA HEAL~ 3319 DR JOHN HA~ PELL~ AL    35125     
##  4         17169 CV HOME HEAL~ 17035 HWY 11 NO~ VANCE AL    35490     
##  5         17801 AUTAUGA COUN~ 219 NORTH COURT~ PRAT~ AL    36067     
##  6         17812 MARENGO COUN~ 303 INDUSTRIAL ~ LIND~ AL    36748     
##  7         17828 ETOWAH COUNT~ 709 EAST BROAD ~ GADS~ AL    35903     
##  8         17851 MONTGOMERY C~ 3060 MOBILE HIG~ MONT~ AL    36108     
##  9         17873 MORGAN COUNT~ 201 GORDON DRIV~ DECA~ AL    35601     
## 10         17875 CULLMAN COUN~ 601 LOGAN AVENU~ CULL~ AL    35055     
## # ... with 2,465 more rows, and 43 more variables: `Total Episodes
## #   (non-LUPA)` <dbl>, `Distinct Beneficiaries (non-LUPA)` <dbl>, `Average
## #   Number of Total Visits Per Episode (non-LUPA)` <dbl>, `Average Number
## #   of Skilled Nursing Visits Per Episode (non-LUPA)` <dbl>, `Average
## #   Number of PT Visits Per Episode (non-LUPA)` <dbl>, `Average Number of
## #   OT Visits Per Episode (non-LUPA)` <dbl>, `Average Number of ST Visits
## #   Per Episode (non-LUPA)` <dbl>, `Average Number of Home Health Aide
## #   Visits Per Episode (non-LUPA)` <dbl>, `Average Number of
## #   Medical-Social Visits Per Episode (non-LUPA)` <dbl>, `Total HHA Charge
…
